// Jest Snapshot v1, https://goo.gl/fbAQLP

exports[`sort cats correctly 1`] = `
Object {
  "femaleCats": Array [
    Object {
      "name": "Garfield",
      "type": "Cat",
    },
    Object {
      "name": "Simba",
      "type": "Cat",
    },
    Object {
      "name": "Tabby",
      "type": "Cat",
    },
  ],
  "maleCats": Array [
    Object {
      "name": "Garfield",
      "type": "Cat",
    },
    Object {
      "name": "Jim",
      "type": "Cat",
    },
    Object {
      "name": "Max",
      "type": "Cat",
    },
    Object {
      "name": "Tom",
      "type": "Cat",
    },
  ],
}
`;
